{
  "project_info": {
    "project_number": "995523561696",
    "firebase_url": "https://trackerapp-1565650818871.firebaseio.com",
    "project_id": "trackerapp-1565650818871",
    "storage_bucket": "trackerapp-1565650818871.appspot.com"
  },
  "client": [
    {
      "client_info": {
        "mobilesdk_app_id": "1:995523561696:android:3f6bd7cda5646b7e",
        "android_client_info": {
          "package_name": "com.example.trackerapp"
        }
      },
      "oauth_client": [
        {
          "client_id": "995523561696-99c5ekm5hpv4spi51mpv8m4d27p8f0u1.apps.googleusercontent.com",
          "client_type": 1,
          "android_info": {
            "package_name": "com.example.trackerapp",
            "certificate_hash": "31fb5d60235019485235331449fa723ccbb4aca1"
          }
        },
        {
          "client_id": "995523561696-jkoomln5t03l4gihvrm88meqtm0lb118.apps.googleusercontent.com",
          "client_type": 3
        }
      ],
      "api_key": [
        {
          "current_key": "AIzaSyAYCdhqTlAyrAwXRGOzztC3bkNBle9LQOw"
        }
      ],
      "services": {
        "appinvite_service": {
          "other_platform_oauth_client": [
            {
              "client_id": "995523561696-jkoomln5t03l4gihvrm88meqtm0lb118.apps.googleusercontent.com",
              "client_type": 3
            }
          ]
        }
      }
    }
  ],
  "configuration_version": "1"
}